…
``` r
# install.packages("remotes")
remotes::install_github("ramiromagno/rutledge")
```

## Data

`rutledge` is provided as a tidy data set, in long format, i.e. each row
is for an amplication curve point (cycle/fluor).

``` r
library(rutledge)
rutledge
#> # A tibble: 10,800 × 10
#>    plate well  dye   target sample_type replicate   copies dilution cycle  fluor
#>    <fct> <fct> <chr> <fct>  <fct>           <int>    <int>    <int> <dbl>  <dbl>
#>  1 1     <NA>  SYBR  K1/K2  std                 1 41700000        1     1 0     
#>  2 1     <NA>  SYBR  K1/K2  std                 1 41700000        1     2 0     
#>  3 1     <NA>  SYBR  K1/K2  std                 1 41700000        1     3 0     
#>  4 1     <NA>  SYBR  K1/K2  std                 1 41700000        1     4 0     
#>  5 1     <NA>  SYBR  K1/K2  std                 1 41700000        1     5 0.0007
#>  6 1     <NA>  SYBR  K1/K2  std                 1 41700000        1     6 0.0022
#>  7 1     <NA>  SYBR  K1/K2  std                 1 41700000        1     7 0.0005
#>  8 1     <NA>  SYBR  K1/K2  std                 1 41700000        1     8 0.0047
#>  9 1     <NA>  SYBR  K1/K2  std                 1 41700000        1     9 0.0107
#> 10 1     <NA>  SYBR  K1/K2  std                 1 41700000        1    10 0.0203
#> # ℹ 10,790 more rows
```

The `rutledge` data set comprises 240 amplification curves: 2 amplicons
$\times$ 5 runs (plates) $\times$ 6 dilution levels $\times$ 4
replicates.

``` r
rutledge |>
  dplyr::count(plate, target, copies, replicate)
#> # A tibble: 240 × 5
#>    plate target copies replicate     n
#>    <fct> <fct>   <int>     <int> <int>
#>  1 1     K1/K2     417         1    45
#>  2 1     K1/K2     417         2    45
#>  3 1     K1/K2     417         3    45
#>  4 1     K1/K2     417         4    45
#>  5 1     K1/K2    4170         1    45
#>  6 1     K1/K2    4170         2    45
#>  7 1     K1/K2    4170         3    45
#>  8 1     K1/K2    4170         4    45
#>  9 1     K1/K2   41700         1    45
#> 10 1     K1/K2   41700         2    45
#> # ℹ 230 more rows
…
