qPCR data set by Rutledge et al. (2004) — rutledge • rutledge
…
cycle
PCR cycle.

fluor
Raw fluorescence values.

    Source

    doi:10.1093/nar/gnh177

    Examples

rutledge
#> # A tibble: 10,800 × 10
#>    plate well  dye   target sample_type replicate   copies dilution cycle  fluor
#>    <fct> <fct> <chr> <fct>  <fct>           <int>    <int>    <int> <dbl>  <dbl>
#>  1 1     NA    SYBR  K1/K2  std                 1 41700000        1     1 0     
#>  2 1     NA    SYBR  K1/K2  std                 1 41700000        1     2 0     
#>  3 1     NA    SYBR  K1/K2  std                 1 41700000        1     3 0     
#>  4 1     NA    SYBR  K1/K2  std                 1 41700000        1     4 0     
#>  5 1     NA    SYBR  K1/K2  std                 1 41700000        1     5 0.0007
#>  6 1     NA    SYBR  K1/K2  std                 1 41700000        1     6 0.0022
#>  7 1     NA    SYBR  K1/K2  std                 1 41700000        1     7 0.0005
#>  8 1     NA    SYBR  K1/K2  std                 1 41700000        1     8 0.0047
#>  9 1     NA    SYBR  K1/K2  std                 1 41700000        1     9 0.0107
#> 10 1     NA    SYBR  K1/K2  std                 1 41700000        1    10 0.0203
#> # ℹ 10,790 more rows
…
